RTL/area_min/Verificación/dump.vcd
$date
	Tue Jul 13 02:36:41 2021
$end
$version
	Icarus Verilog
$end
$timescale
	1ps
$end
$scope module BUF $end
$var wire 1 ! A $end
$var wire 1 " Y $end
$upscope $end
$scope module DFF $end
$var wire 1 # C $end
$var wire 1 $ D $end
$var reg 1 % Q $end
$upscope $end
$scope module DFFSR $end
$var wire 1 & C $end
$var wire 1 ' D $end
$var wire 1 ( R $end
$var wire 1 ) S $end
$var reg 1 * Q $end
$upscope $end
$scope module NAND $end
$var wire 1 + A $end
$var wire 1 , B $end
$var wire 1 - Y $end
$upscope $end
$scope module NOR $end
$var wire 1 . A $end
$var wire 1 / B $end
$var wire 1 0 Y $end
$upscope $end
$scope module NOT $end
$var wire 1 1 A $end
$var wire 1 2 Y $end
$upscope $end
$scope module tbtop $end
$var wire 2 3 num_entradas [1:0] $end
$var wire 1 4 reset_L $end
$var wire 1 5 fin $end
$var wire 1 6 clk $end
$var wire 24 7 bounty_out [23:0] $end
$scope module hash $end
$var wire 96 8 entrada [95:0] $end
$var wire 1 9 fill $end
$var wire 2 : num_entradas [1:0] $end
$var wire 1 4 reset_L $end
$var wire 1 ; valid $end
$var wire 2 < rd_ptr [1:0] $end
$var wire 24 = nonce [23:0] $end
$var wire 1 5 fin $end
$var wire 96 > data_out [95:0] $end
$var wire 1 6 clk $end
$var wire 24 ? bounty_out [23:0] $end
$var wire 24 @ bounty [23:0] $end
$var wire 128 A bloque_in [127:0] $end
$var wire 24 B H [23:0] $end
$scope module RAM $end
$var wire 1 4 reset_L $end
$var wire 1 6 clk $end
$var reg 96 C data_out [95:0] $end
$var reg 2 D rd_ptr [1:0] $end
$upscope $end
$scope module comparador $end
$var wire 1 4 reset_L $end
$var wire 1 6 clk $end
$var wire 24 E H [23:0] $end
$var reg 24 F bounty [23:0] $end
$var reg 8 G target [7:0] $end
$var reg 1 ; valid $end
$upscope $end
$scope module concatenador $end
$var wire 96 H entrada [95:0] $end
$var wire 32 I nonce [31:0] $end
$var wire 1 4 reset_L $end
$var wire 1 6 clk $end
$var reg 128 J bloque_in [127:0] $end
$upscope $end
$scope module gen_nonce $end
$var wire 1 4 reset_L $end
$var wire 1 ; valid $end
$var wire 1 6 clk $end
$var reg 24 K nonce [23:0] $end
$upscope $end
$scope module micro_hash $end
$var wire 128 L bloque_in [127:0] $end
$var wire 1 9 fill $end
$var wire 1 4 reset_L $end
$var wire 1 6 clk $end
$var reg 24 M H [23:0] $end
$var reg 8 N H_0 [7:0] $end
$var reg 8 O H_1 [7:0] $end
$var reg 8 P H_2 [7:0] $end
$var reg 8 Q a [7:0] $end
$var reg 8 R b [7:0] $end
$var reg 8 S c [7:0] $end
$var reg 7 T count [6:0] $end
$var reg 8 U k [7:0] $end
$var reg 8 V x [7:0] $end
$upscope $end
$scope module probador $end
$var wire 1 5 fin $end
$var wire 1 6 clk $end
$var wire 24 W bounty_out [23:0] $end
$var reg 2 X num_entradas [1:0] $end
$var reg 1 Y reset_L $end
$scope task drv_init $end
$upscope $end
$upscope $end
$scope module salidas $end
$var wire 24 Z bounty [23:0] $end
$var wire 2 [ num_entradas [1:0] $end
$var wire 1 4 reset_L $end
$var wire 1 6 clk $end
$var reg 24 \ bounty_out [23:0] $end
$var reg 1 5 fin $end
$var reg 2 ] rd_ptr [1:0] $end
$upscope $end
$upscope $end
$scope module prob $end
$var wire 24 ^ bounty_out [23:0] $end
$var wire 1 5 fin $end
$var wire 1 6 clk $end
$var reg 2 _ num_entradas [1:0] $end
$var reg 1 ` reset_L $end
$scope task drv_init $end
$upscope $end
$upscope $end
$scope module reloj $end
$var reg 1 6 clk $end
$upscope $end
$upscope $end
$scope module BUF $end
$upscope $end
$scope module DFF $end
$upscope $end
$scope module DFFSR $end
$upscope $end
$scope module NAND $end
$upscope $end
$scope module NOR $end
$upscope $end
$scope module NOT $end
$upscope $end
$scope module tbtop $end
$scope module hash $end
$scope module RAM $end
$upscope $end
$scope module comparador $end
$upscope $end
$scope module concatenador $end
$upscope $end
$scope module gen_nonce $end
$upscope $end
$scope module micro_hash $end
$upscope $end
$scope module probador $end
$scope task drv_init $end
$upscope $end
$upscope $end
$scope module salidas $end
$upscope $end
$upscope $end
$scope module prob $end
$scope task drv_init $end
$upscope $end
$upscope $end
$scope module reloj $end
$upscope $end
$upscope $end
$enddefinitions $end
#0
$dumpvars
x`
bx _
bx ^
bx ]
bx \
bx [
bx Z
xY
bx X
bx W
bx V
bx U
bx T
bx S
bx R
bx Q
bx P
bx O
bx N
bx M
bzxxxxxxxxxxxxxxxxxxxxxxxxxxxxxxxx L
bx K
bzxxxxxxxxxxxxxxxxxxxxxxxxxxxxxxxx J
bx I
bz H
bx G
bx F
bx E
bx D
bx C
bx B
bzxxxxxxxxxxxxxxxxxxxxxxxxxxxxxxxx A
bx @
bx ?
bx >
bx =
bx <
x;
bx :
z9
bz 8
bx 7
06
x5
x4
bx 3
z2
z1
x0
z/
z.
x-
z,
z+
x*
z)
z(
z'
z&
x%
z$
z#
z"
z!
$end
#100000
b0 A
b0 J
b0 L
0;
b11 3
b11 :
b11 [
b11 X
04
0Y
b11 _
0`
16
#200000
06
#300000
bx000000000000000000000000 I
05
b0 7
b0 ?
b0 W
b0 \
b0 ^
b0 <
b0 ]
b0 D
b0 >
b0 C
b0 =
b0 K
b0 @
b0 F
b0 Z
b1000000 G
b0 T
b10011001 U
b11111110 S
b10001001 R
b1 Q
b11111110 P
b10001001 O
b1 N
b0 B
b0 E
b0 M
16
#400000
06
#500000
bzxxxxxxxx000000000000000000000000 A
bzxxxxxxxx000000000000000000000000 J
bzxxxxxxxx000000000000000000000000 L
b10001000 V
1Y
14
1`
16
#600000
06
#700000
bzxxxxxxxx000101010011010100100100 A
bzxxxxxxxx000101010011010100100100 J
bzxxxxxxxx000101010011010100100100 L
bx000101010011010100100100 I
b1 D
b10000001100101010011110011011000110101100011111001100110010010011111101111011011000011100111100 >
b10000001100101010011110011011000110101100011111001100110010010011111101111011011000011100111100 C
b101010011010100100100 =
b101010011010100100100 K
1;
b1 T
b100001 S
b11100000 R
b1110111 Q
16
#800000
06
#900000
b10 T
b1010110 S
b10000 R
b11000001 Q
b10010111 V
b10 D
b11111001100011101101000011100010111000110001001010001110000110000100101011101111111000001111 >
b11111001100011101101000011100010111000110001001010001110000110000100101011101111111000001111 C
16
#1000000
06
#1100000
b11 D
b100110000100101011100000111000101110001100010010100011101111111000001111101000100011010010010001 >
b100110000100101011100000111000101110001100010010100011101111111000001111101000100011010010010001 C
b11 T
b1000101 S
b1100000 R
b1000110 Q
b11010001 V
16
#1200000
06
#1300000
b100 T
bx S
b1010000 R
b100101 Q
b100110 V
b0 D
b111010011111011110001001111100111101100010011110110001111100011110111000101001111101111101111000 >
b111010011111011110001001111100111101100010011110110001111100011110111000101001111101111101111000 C
16
#1400000
06
#1500000
b1 D
b10000001100101010011110011011000110101100011111001100110010010011111101111011011000011100111100 >
b10000001100101010011110011011000110101100011111001100110010010011111101111011011000011100111100 C
b101 T
bx0000 R
bx Q
b1110101 V
16
#1600000
06
#1700000
b110 T
bx V
b10 D
b11111001100011101101000011100010111000110001001010001110000110000100101011101111111000001111 >
b11111001100011101101000011100010111000110001001010001110000110000100101011101111111000001111 C
16
#1800000
06
#1900000
b11 D
b100110000100101011100000111000101110001100010010100011101111111000001111101000100011010010010001 >
b100110000100101011100000111000101110001100010010100011101111111000001111101000100011010010010001 C
b111 T
16
#2000000
06
#2100000
b1000 T
b0 D
b111010011111011110001001111100111101100010011110110001111100011110111000101001111101111101111000 >
b111010011111011110001001111100111101100010011110110001111100011110111000101001111101111101111000 C
16
#2200000
06
#2300000
b1 D
b10000001100101010011110011011000110101100011111001100110010010011111101111011011000011100111100 >
b10000001100101010011110011011000110101100011111001100110010010011111101111011011000011100111100 C
b1001 T
16
#2400000
06
#2500000
b1010 T
b10 D
b11111001100011101101000011100010111000110001001010001110000110000100101011101111111000001111 >
b11111001100011101101000011100010111000110001001010001110000110000100101011101111111000001111 C
16
#2600000
06
#2700000
b11 D
b100110000100101011100000111000101110001100010010100011101111111000001111101000100011010010010001 >
b100110000100101011100000111000101110001100010010100011101111111000001111101000100011010010010001 C
b1011 T
16
#2800000
06
#2900000
b1100 T
b0 D
b111010011111011110001001111100111101100010011110110001111100011110111000101001111101111101111000 >
b111010011111011110001001111100111101100010011110110001111100011110111000101001111101111101111000 C
16
#3000000
06
#3100000
b1 D
b10000001100101010011110011011000110101100011111001100110010010011111101111011011000011100111100 >
b10000001100101010011110011011000110101100011111001100110010010011111101111011011000011100111100 C
b1101 T
16
#3200000
06
#3300000
b1110 T
b10 D
b11111001100011101101000011100010111000110001001010001110000110000100101011101111111000001111 >
b11111001100011101101000011100010111000110001001010001110000110000100101011101111111000001111 C
16
#3400000
06
#3500000
b11 D
b100110000100101011100000111000101110001100010010100011101111111000001111101000100011010010010001 >
b100110000100101011100000111000101110001100010010100011101111111000001111101000100011010010010001 C
b1111 T
16
#3600000
06
#3700000
b10000 T
b0 D
b111010011111011110001001111100111101100010011110110001111100011110111000101001111101111101111000 >
b111010011111011110001001111100111101100010011110110001111100011110111000101001111101111101111000 C
16
#3800000
06
#3900000
b1 D
b10000001100101010011110011011000110101100011111001100110010010011111101111011011000011100111100 >
b10000001100101010011110011011000110101100011111001100110010010011111101111011011000011100111100 C
b10001 T
16
#4000000
06
#4100000
b10010 T
b10100001 U
b10 D
b11111001100011101101000011100010111000110001001010001110000110000100101011101111111000001111 >
b11111001100011101101000011100010111000110001001010001110000110000100101011101111111000001111 C
16
#4200000
06
#4300000
b11 D
b100110000100101011100000111000101110001100010010100011101111111000001111101000100011010010010001 >
b100110000100101011100000111000101110001100010010100011101111111000001111101000100011010010010001 C
b10011 T
16
#4400000
06
#4500000
b10100 T
b0 D
b111010011111011110001001111100111101100010011110110001111100011110111000101001111101111101111000 >
b111010011111011110001001111100111101100010011110110001111100011110111000101001111101111101111000 C
16
#4600000
06
#4700000
b1 D
b10000001100101010011110011011000110101100011111001100110010010011111101111011011000011100111100 >
b10000001100101010011110011011000110101100011111001100110010010011111101111011011000011100111100 C
b10101 T
16
#4800000
06
#4900000
b10110 T
b10 D
b11111001100011101101000011100010111000110001001010001110000110000100101011101111111000001111 >
b11111001100011101101000011100010111000110001001010001110000110000100101011101111111000001111 C
16
#5000000
06
#5100000
b11 D
b100110000100101011100000111000101110001100010010100011101111111000001111101000100011010010010001 >
b100110000100101011100000111000101110001100010010100011101111111000001111101000100011010010010001 C
b10111 T
16
#5200000
06
#5300000
b11000 T
b0 D
b111010011111011110001001111100111101100010011110110001111100011110111000101001111101111101111000 >
b111010011111011110001001111100111101100010011110110001111100011110111000101001111101111101111000 C
16
#5400000
06
#5500000
b1 D
b10000001100101010011110011011000110101100011111001100110010010011111101111011011000011100111100 >
b10000001100101010011110011011000110101100011111001100110010010011111101111011011000011100111100 C
b11001 T
16
#5600000
06
#5700000
b11010 T
b10 D
b11111001100011101101000011100010111000110001001010001110000110000100101011101111111000001111 >
b11111001100011101101000011100010111000110001001010001110000110000100101011101111111000001111 C
16
#5800000
06
#5900000
b11 D
b100110000100101011100000111000101110001100010010100011101111111000001111101000100011010010010001 >
b100110000100101011100000111000101110001100010010100011101111111000001111101000100011010010010001 C
b11011 T
16
#6000000
06
#6100000
b11100 T
b0 D
b111010011111011110001001111100111101100010011110110001111100011110111000101001111101111101111000 >
b111010011111011110001001111100111101100010011110110001111100011110111000101001111101111101111000 C
16
#6200000
06
#6300000
b1 D
b10000001100101010011110011011000110101100011111001100110010010011111101111011011000011100111100 >
b10000001100101010011110011011000110101100011111001100110010010011111101111011011000011100111100 C
b11101 T
16
#6400000
06
#6500000
b11110 T
b10 D
b11111001100011101101000011100010111000110001001010001110000110000100101011101111111000001111 >
b11111001100011101101000011100010111000110001001010001110000110000100101011101111111000001111 C
16
#6600000
06
#6700000
b11 D
b100110000100101011100000111000101110001100010010100011101111111000001111101000100011010010010001 >
b100110000100101011100000111000101110001100010010100011101111111000001111101000100011010010010001 C
b11111 T
16
#6800000
06
#6900000
b100000 T
b0 D
b111010011111011110001001111100111101100010011110110001111100011110111000101001111101111101111000 >
b111010011111011110001001111100111101100010011110110001111100011110111000101001111101111101111000 C
16
#7000000
06
#7100000
b1 D
b10000001100101010011110011011000110101100011111001100110010010011111101111011011000011100111100 >
b10000001100101010011110011011000110101100011111001100110010010011111101111011011000011100111100 C
bx P
bx O
bx N
b11000100111111110 B
b11000100111111110 E
b11000100111111110 M
16
#7200000
06
#7300000
bx B
bx E
bx M
b10 D
b11111001100011101101000011100010111000110001001010001110000110000100101011101111111000001111 >
b11111001100011101101000011100010111000110001001010001110000110000100101011101111111000001111 C
16
#7400000
06
#7500000
b11 D
b100110000100101011100000111000101110001100010010100011101111111000001111101000100011010010010001 >
b100110000100101011100000111000101110001100010010100011101111111000001111101000100011010010010001 C
0;
16
#7600000
06
#7700000
bzxxxxxxxx100010010101111010000001 A
bzxxxxxxxx100010010101111010000001 J
bzxxxxxxxx100010010101111010000001 L
bx100010010101111010000001 I
b100010010101111010000001 =
b100010010101111010000001 K
b0 D
b111010011111011110001001111100111101100010011110110001111100011110111000101001111101111101111000 >
b111010011111011110001001111100111101100010011110110001111100011110111000101001111101111101111000 C
16
#7800000
06
#7900000
bzxxxxxxxx100001001101011000001001 A
bzxxxxxxxx100001001101011000001001 J
bzxxxxxxxx100001001101011000001001 L
bx100001001101011000001001 I
b1 D
b10000001100101010011110011011000110101100011111001100110010010011111101111011011000011100111100 >
b10000001100101010011110011011000110101100011111001100110010010011111101111011011000011100111100 C
b100001001101011000001001 =
b100001001101011000001001 K
16
#8000000
06
#8100000
bzxxxxxxxx111100000101011001100011 A
bzxxxxxxxx111100000101011001100011 J
bzxxxxxxxx111100000101011001100011 L
bx111100000101011001100011 I
b111100000101011001100011 =
b111100000101011001100011 K
b10 D
b11111001100011101101000011100010111000110001001010001110000110000100101011101111111000001111 >
b11111001100011101101000011100010111000110001001010001110000110000100101011101111111000001111 C
16
#8200000
06
#8300000
bzxxxxxxxx101110010111101100001101 A
bzxxxxxxxx101110010111101100001101 J
bzxxxxxxxx101110010111101100001101 L
bx101110010111101100001101 I
b11 D
b100110000100101011100000111000101110001100010010100011101111111000001111101000100011010010010001 >
b100110000100101011100000111000101110001100010010100011101111111000001111101000100011010010010001 C
b101110010111101100001101 =
b101110010111101100001101 K
16
#8400000
06
#8500000
bzxxxxxxxx110111111001100110001101 A
bzxxxxxxxx110111111001100110001101 J
bzxxxxxxxx110111111001100110001101 L
bx110111111001100110001101 I
b110111111001100110001101 =
b110111111001100110001101 K
b0 D
b111010011111011110001001111100111101100010011110110001111100011110111000101001111101111101111000 >
b111010011111011110001001111100111101100010011110110001111100011110111000101001111101111101111000 C
16
#8600000
06
#8700000
bzxxxxxxxx110000101000010001100101 A
bzxxxxxxxx110000101000010001100101 J
bzxxxxxxxx110000101000010001100101 L
bx110000101000010001100101 I
b1 D
b10000001100101010011110011011000110101100011111001100110010010011111101111011011000011100111100 >
b10000001100101010011110011011000110101100011111001100110010010011111101111011011000011100111100 C
b110000101000010001100101 =
b110000101000010001100101 K
16
#8800000
06
#8900000
bzxxxxxxxx001101110101001000010010 A
bzxxxxxxxx001101110101001000010010 J
bzxxxxxxxx001101110101001000010010 L
bx001101110101001000010010 I
b1101110101001000010010 =
b1101110101001000010010 K
b10 D
b11111001100011101101000011100010111000110001001010001110000110000100101011101111111000001111 >
b11111001100011101101000011100010111000110001001010001110000110000100101011101111111000001111 C
16
#9000000
06
#9100000
bzxxxxxxxx111100111110001100000001 A
bzxxxxxxxx111100111110001100000001 J
bzxxxxxxxx111100111110001100000001 L
bx111100111110001100000001 I
b11 D
b100110000100101011100000111000101110001100010010100011101111111000001111101000100011010010010001 >
b100110000100101011100000111000101110001100010010100011101111111000001111101000100011010010010001 C
b111100111110001100000001 =
b111100111110001100000001 K
16
#9200000
06
#9300000
bzxxxxxxxx110101111100110100001101 A
bzxxxxxxxx110101111100110100001101 J
bzxxxxxxxx110101111100110100001101 L
bx110101111100110100001101 I
b110101111100110100001101 =
b110101111100110100001101 K
b0 D
b111010011111011110001001111100111101100010011110110001111100011110111000101001111101111101111000 >
b111010011111011110001001111100111101100010011110110001111100011110111000101001111101111101111000 C
16
#9400000
06
#9500000
bzxxxxxxxx001000111111000101110110 A
bzxxxxxxxx001000111111000101110110 J
bzxxxxxxxx001000111111000101110110 L
bx001000111111000101110110 I
b1 D
b10000001100101010011110011011000110101100011111001100110010010011111101111011011000011100111100 >
b10000001100101010011110011011000110101100011111001100110010010011111101111011011000011100111100 C
b1000111111000101110110 =
b1000111111000101110110 K
16
#9600000
06
#9700000
bzxxxxxxxx100011011100110100111101 A
bzxxxxxxxx100011011100110100111101 J
bzxxxxxxxx100011011100110100111101 L
bx100011011100110100111101 I
b100011011100110100111101 =
b100011011100110100111101 K
b10 D
b11111001100011101101000011100010111000110001001010001110000110000100101011101111111000001111 >
b11111001100011101101000011100010111000110001001010001110000110000100101011101111111000001111 C
16
#9800000
06
#9900000
bzxxxxxxxx110101000101011111101101 A
bzxxxxxxxx110101000101011111101101 J
bzxxxxxxxx110101000101011111101101 L
bx110101000101011111101101 I
b11 D
b100110000100101011100000111000101110001100010010100011101111111000001111101000100011010010010001 >
b100110000100101011100000111000101110001100010010100011101111111000001111101000100011010010010001 C
b110101000101011111101101 =
b110101000101011111101101 K
16
#10000000
06
#10100000
bzxxxxxxxx001011011111011110001100 A
bzxxxxxxxx001011011111011110001100 J
bzxxxxxxxx001011011111011110001100 L
bx001011011111011110001100 I
b1011011111011110001100 =
b1011011111011110001100 K
b0 D
b111010011111011110001001111100111101100010011110110001111100011110111000101001111101111101111000 >
b111010011111011110001001111100111101100010011110110001111100011110111000101001111101111101111000 C
16
#10200000
06
#10300000
bzxxxxxxxx111111011110100111111001 A
bzxxxxxxxx111111011110100111111001 J
bzxxxxxxxx111111011110100111111001 L
bx111111011110100111111001 I
b1 D
b10000001100101010011110011011000110101100011111001100110010010011111101111011011000011100111100 >
b10000001100101010011110011011000110101100011111001100110010010011111101111011011000011100111100 C
b111111011110100111111001 =
b111111011110100111111001 K
16
#10400000
06
#10500000
b10 D
b11111001100011101101000011100010111000110001001010001110000110000100101011101111111000001111 >
b11111001100011101101000011100010111000110001001010001110000110000100101011101111111000001111 C
16
