RTL/area_min/Verificación/test.vcd
$date
	Wed Jul 14 21:02:04 2021
$end
$version
	Icarus Verilog
$end
$timescale
	1ps
$end
$scope module tbtop $end
$var wire 8 ! target [7:0] $end
$var wire 1 " reset_L $end
$var wire 2 # num_entradas [1:0] $end
$var wire 32 $ nonce_valido_out [31:0] $end
$var wire 1 % fin $end
$var wire 1 & clk $end
$var wire 24 ' bounty_out [23:0] $end
$scope module hash_cond $end
$var wire 1 ( valid $end
$var wire 8 ) target [7:0] $end
$var wire 1 " reset_L $end
$var wire 2 * rd_ptr [1:0] $end
$var wire 2 + num_entradas [1:0] $end
$var wire 32 , nonce_valido_out [31:0] $end
$var wire 32 - nonce_valido [31:0] $end
$var wire 32 . nonce_1 [31:0] $end
$var wire 32 / nonce [31:0] $end
$var wire 1 % fin $end
$var wire 96 0 entrada [95:0] $end
$var wire 1 & clk $end
$var wire 24 1 bounty_out [23:0] $end
$var wire 24 2 bounty [23:0] $end
$var wire 128 3 bloque_in [127:0] $end
$var wire 24 4 H [23:0] $end
$scope module RAM $end
$var wire 1 " reset_L $end
$var wire 2 5 rd_ptr [1:0] $end
$var wire 1 & clk $end
$var reg 96 6 entrada [95:0] $end
$upscope $end
$scope module comparador $end
$var wire 8 7 target [7:0] $end
$var wire 1 " reset_L $end
$var wire 32 8 nonce_1 [31:0] $end
$var wire 1 % fin $end
$var wire 1 & clk $end
$var wire 24 9 H [23:0] $end
$var reg 24 : bounty [23:0] $end
$var reg 32 ; nonce_valido [31:0] $end
$var reg 1 ( valid $end
$upscope $end
$scope module concatenador $end
$var wire 96 < entrada [95:0] $end
$var wire 1 " reset_L $end
$var wire 32 = nonce [31:0] $end
$var wire 1 & clk $end
$var reg 128 > bloque_in [127:0] $end
$upscope $end
$scope module gen_nonce $end
$var wire 1 ( valid $end
$var wire 1 " reset_L $end
$var wire 1 % fin $end
$var wire 1 & clk $end
$var reg 32 ? nonce [31:0] $end
$var reg 8 @ rand [7:0] $end
$upscope $end
$scope module micro_hash $end
$var wire 128 A bloque_in [127:0] $end
$var wire 1 " reset_L $end
$var wire 1 % fin $end
$var wire 1 & clk $end
$var reg 24 B H [23:0] $end
$var reg 8 C H_0 [7:0] $end
$var reg 8 D H_1 [7:0] $end
$var reg 8 E H_2 [7:0] $end
$var reg 8 F a [7:0] $end
$var reg 8 G b [7:0] $end
$var reg 8 H c [7:0] $end
$var reg 7 I count [6:0] $end
$var reg 8 J k [7:0] $end
$var reg 32 K nonce_1 [31:0] $end
$var reg 8 L x [7:0] $end
$upscope $end
$scope module salidas $end
$var wire 24 M bounty [23:0] $end
$var wire 32 N nonce_valido [31:0] $end
$var wire 1 ( valid $end
$var wire 8 O target [7:0] $end
$var wire 1 " reset_L $end
$var wire 2 P num_entradas [1:0] $end
$var wire 1 & clk $end
$var reg 24 Q bounty_out [23:0] $end
$var reg 1 % fin $end
$var reg 32 R nonce_valido_out [31:0] $end
$var reg 2 S rd_ptr [1:0] $end
$upscope $end
$upscope $end
$scope module prob $end
$var wire 24 T bounty_out [23:0] $end
$var wire 1 % fin $end
$var wire 32 U nonce_valido_out [31:0] $end
$var wire 1 & clk $end
$var reg 2 V num_entradas [1:0] $end
$var reg 1 " reset_L $end
$var reg 8 W target [7:0] $end
$scope task drv_init $end
$upscope $end
$upscope $end
$scope module reloj $end
$var reg 1 & clk $end
$upscope $end
$upscope $end
$enddefinitions $end
#200000
$dumpvars
bx W
bx V
bx U
bx T
bx S
bx R
bx Q
bx P
bx O
bx N
bx M
bx L
bx K
bx J
bx I
bx H
bx G
bx F
bx E
bx D
bx C
bx B
bx A
bx @
bx ?
bx >
bx =
bx <
bx ;
bx :
bx 9
bx 8
bx 7
bx 6
bx 5
bx 4
bx 3
bx 2
bx 1
bx 0
bx /
bx .
bx -
bx ,
bx +
bx *
bx )
x(
bx '
0&
x%
bx $
bx #
x"
bx !
$end
#300000
1&
#400000
0&
#500000
b0 3
b0 >
b0 A
b11 #
b11 +
b11 P
b11 V
0"
b110000 !
b110000 )
b110000 7
b110000 O
b110000 W
1&
#600000
0&
#700000
b0 $
b0 ,
b0 R
b0 U
0%
b0 '
b0 1
b0 Q
b0 T
b0 *
b0 5
b0 S
b0 0
b0 6
b0 <
b0 -
b0 ;
b0 N
b0 2
b0 :
b0 M
0(
b0 I
b10011001 J
b11111110 H
b10001001 G
b1 F
b11111110 E
b10001001 D
b1 C
b111111111111111111111111 4
b111111111111111111111111 9
b111111111111111111111111 B
b0 .
b0 8
b0 K
1&
#800000
0&
#900000
b10001000 L
b0 @
b0 /
b0 =
b0 ?
1"
1&
#1000000
0&
#1100000
b111001011111011001111100101111010000001100101010011110011011000110101100011111001100110010010010101001011000001010111100100001 3
b111001011111011001111100101111010000001100101010011110011011000110101100011111001100110010010010101001011000001010111100100001 >
b111001011111011001111100101111010000001100101010011110011011000110101100011111001100110010010010101001011000001010111100100001 A
b1110010111110110011111001011110100000011001010100111100110110001101011000111110011001100100100 0
b1110010111110110011111001011110100000011001010100111100110110001101011000111110011001100100100 6
b1110010111110110011111001011110100000011001010100111100110110001101011000111110011001100100100 <
b10101001011000001010111100100001 /
b10101001011000001010111100100001 =
b10101001011000001010111100100001 ?
b1 I
b100001 H
b11100000 G
b1110111 F
1&
#1200000
0&
#1300000
b111001011111011001111100101111010000001100101010011110011011000110101100011111001100110010010001010111110101001101100001111110 3
b111001011111011001111100101111010000001100101010011110011011000110101100011111001100110010010001010111110101001101100001111110 >
b111001011111011001111100101111010000001100101010011110011011000110101100011111001100110010010001010111110101001101100001111110 A
b10 I
b11010000 H
b10000 G
b11000001 F
b10010111 L
b1010111110101001101100001111110 /
b1010111110101001101100001111110 =
b1010111110101001101100001111110 ?
b10101001011000001010111100100001 .
b10101001011000001010111100100001 8
b10101001011000001010111100100001 K
1&
#1400000
0&
#1500000
b111001011111011001111100101111010000001100101010011110011011000110101100011111001100110010010000011011110100000101000000000110 3
b111001011111011001111100101111010000001100101010011110011011000110101100011111001100110010010000011011110100000101000000000110 >
b111001011111011001111100101111010000001100101010011110011011000110101100011111001100110010010000011011110100000101000000000110 A
b11011110100000101000000000110 /
b11011110100000101000000000110 =
b11011110100000101000000000110 ?
b11 I
b100 H
b0 G
b11000000 F
b11010001 L
b1010111110101001101100001111110 .
b1010111110101001101100001111110 8
b1010111110101001101100001111110 K
1&
#1600000
0&
#1700000
b111001011111011001111100101111010000001100101010011110011011000110101100011111001100110010010001001001001110111101000001100000 3
b111001011111011001111100101111010000001100101010011110011011000110101100011111001100110010010001001001001110111101000001100000 >
b111001011111011001111100101111010000001100101010011110011011000110101100011111001100110010010001001001001110111101000001100000 A
b100 I
b10000101 H
b1000000 G
b100 F
b11000000 L
b1001001001110111101000001100000 /
b1001001001110111101000001100000 =
b1001001001110111101000001100000 ?
b11011110100000101000000000110 .
b11011110100000101000000000110 8
b11011110100000101000000000110 K
1&
#1800000
0&
#1900000
b111001011111011001111100101111010000001100101010011110011011000110101100011111001100110010010010011110000001001111010100001010 3
b111001011111011001111100101111010000001100101010011110011011000110101100011111001100110010010010011110000001001111010100001010 >
b111001011111011001111100101111010000001100101010011110011011000110101100011111001100110010010010011110000001001111010100001010 A
b10011110000001001111010100001010 /
b10011110000001001111010100001010 =
b10011110000001001111010100001010 ?
b101 I
b1111101 H
b1010000 G
b11000101 F
b1000100 L
b1001001001110111101000001100000 .
b1001001001110111101000001100000 8
b1001001001110111101000001100000 K
1&
#2000000
0&
#2100000
b111001011111011001111100101111010000001100101010011110011011000110101100011111001100110010010011011110001010110001001110001010 3
b111001011111011001111100101111010000001100101010011110011011000110101100011111001100110010010011011110001010110001001110001010 >
b111001011111011001111100101111010000001100101010011110011011000110101100011111001100110010010011011110001010110001001110001010 A
b110 I
b10000 H
b11010000 G
b101101 F
b10010101 L
b11011110001010110001001110001010 /
b11011110001010110001001110001010 =
b11011110001010110001001110001010 ?
b10011110000001001111010100001010 .
b10011110000001001111010100001010 8
b10011110000001001111010100001010 K
1&
#2200000
0&
#2300000
b111001011111011001111100101111010000001100101010011110011011000110101100011111001100110010010001001010000011011111111001100010 3
b111001011111011001111100101111010000001100101010011110011011000110101100011111001100110010010001001010000011011111111001100010 >
b111001011111011001111100101111010000001100101010011110011011000110101100011111001100110010010001001010000011011111111001100010 A
b1001010000011011111111001100010 /
b1001010000011011111111001100010 =
b1001010000011011111111001100010 ?
b111 I
b1001101 H
b0 G
b11000000 F
b11111101 L
b11011110001010110001001110001010 .
b11011110001010110001001110001010 8
b11011110001010110001001110001010 K
1&
#2400000
0&
#2500000
b111001011111011001111100101111010000001100101010011110011011000110101100011111001100110010010000100000100000101100110000001111 3
b111001011111011001111100101111010000001100101010011110011011000110101100011111001100110010010000100000100000101100110000001111 >
b111001011111011001111100101111010000001100101010011110011011000110101100011111001100110010010000100000100000101100110000001111 A
b1000 I
b1 H
b11010000 G
b1001101 F
b11000000 L
b100000100000101100110000001111 /
b100000100000101100110000001111 =
b100000100000101100110000001111 ?
b1001010000011011111111001100010 .
b1001010000011011111111001100010 8
b1001010000011011111111001100010 K
1&
#2600000
0&
#2700000
b111001011111011001111100101111010000001100101010011110011011000110101100011111001100110010010010011000001111110101110011111110 3
b111001011111011001111100101111010000001100101010011110011011000110101100011111001100110010010010011000001111110101110011111110 >
b111001011111011001111100101111010000001100101010011110011011000110101100011111001100110010010010011000001111110101110011111110 A
b10011000001111110101110011111110 /
b10011000001111110101110011111110 =
b10011000001111110101110011111110 ?
b1001 I
b11000101 H
b10000 G
b11010001 F
b10011101 L
b100000100000101100110000001111 .
b100000100000101100110000001111 8
b100000100000101100110000001111 K
1&
#2800000
0&
#2900000
b111001011111011001111100101111010000001100101010011110011011000110101100011111001100110010010010011110001000110100011100001010 3
b111001011111011001111100101111010000001100101010011110011011000110101100011111001100110010010010011110001000110100011100001010 >
b111001011111011001111100101111010000001100101010011110011011000110101100011111001100110010010010011110001000110100011100001010 A
b1010 I
b11010100 H
b1010000 G
b11010101 F
b11000001 L
b10011110001000110100011100001010 /
b10011110001000110100011100001010 =
b10011110001000110100011100001010 ?
b10011000001111110101110011111110 .
b10011000001111110101110011111110 8
b10011000001111110101110011111110 K
1&
#3000000
0&
#3100000
b111001011111011001111100101111010000001100101010011110011011000110101100011111001100110010010011010010011011110110101101110011 3
b111001011111011001111100101111010000001100101010011110011011000110101100011111001100110010010011010010011011110110101101110011 >
b111001011111011001111100101111010000001100101010011110011011000110101100011111001100110010010011010010011011110110101101110011 A
b11010010011011110110101101110011 /
b11010010011011110110101101110011 =
b11010010011011110110101101110011 ?
b1011 I
b100100 H
b1000000 G
b10000100 F
b10000101 L
b10011110001000110100011100001010 .
b10011110001000110100011100001010 8
b10011110001000110100011100001010 K
1&
#3200000
0&
#3300000
b111001011111011001111100101111010000001100101010011110011011000110101100011111001100110010010010110101110110010100011100111010 3
b111001011111011001111100101111010000001100101010011110011011000110101100011111001100110010010010110101110110010100011100111010 >
b111001011111011001111100101111010000001100101010011110011011000110101100011111001100110010010010110101110110010100011100111010 A
b1100 I
b1011110 H
b1100100 F
b11000100 L
b10110101110110010100011100111010 /
b10110101110110010100011100111010 =
b10110101110110010100011100111010 ?
b11010010011011110110101101110011 .
b11010010011011110110101101110011 8
b11010010011011110110101101110011 K
1&
#3400000
0&
#3500000
b111001011111011001111100101111010000001100101010011110011011000110101100011111001100110010010000001110000111111101000111101010 3
b111001011111011001111100101111010000001100101010011110011011000110101100011111001100110010010000001110000111111101000111101010 >
b111001011111011001111100101111010000001100101010011110011011000110101100011111001100110010010000001110000111111101000111101010 A
b1110000111111101000111101010 /
b1110000111111101000111101010 =
b1110000111111101000111101010 ?
b1101 I
b10001100 H
b11100000 G
b11110 F
b100100 L
b10110101110110010100011100111010 .
b10110101110110010100011100111010 8
b10110101110110010100011100111010 K
1&
#3600000
0&
#3700000
b111001011111011001111100101111010000001100101010011110011011000110101100011111001100110010010011011101011110010111000110001001 3
b111001011111011001111100101111010000001100101010011110011011000110101100011111001100110010010011011101011110010111000110001001 >
b111001011111011001111100101111010000001100101010011110011011000110101100011111001100110010010011011101011110010111000110001001 A
b1110 I
b1011100 H
b11000000 G
b1101100 F
b11111110 L
b11011101011110010111000110001001 /
b11011101011110010111000110001001 =
b11011101011110010111000110001001 ?
b1110000111111101000111101010 .
b1110000111111101000111101010 8
b1110000111111101000111101010 K
1&
#3800000
0&
#3900000
b111001011111011001111100101111010000001100101010011110011011000110101100011111001100110010010000010100010010010110001111110110 3
b111001011111011001111100101111010000001100101010011110011011000110101100011111001100110010010000010100010010010110001111110110 >
b111001011111011001111100101111010000001100101010011110011011000110101100011111001100110010010000010100010010010110001111110110 A
b10100010010010110001111110110 /
b10100010010010110001111110110 =
b10100010010010110001111110110 ?
b1111 I
b10100 H
b10011100 F
b10101100 L
b11011101011110010111000110001001 .
b11011101011110010111000110001001 8
b11011101011110010111000110001001 K
1&
#4000000
0&
#4100000
b111001011111011001111100101111010000001100101010011110011011000110101100011111001100110010010001111010100000101001111011000011 3
b111001011111011001111100101111010000001100101010011110011011000110101100011111001100110010010001111010100000101001111011000011 >
b111001011111011001111100101111010000001100101010011110011011000110101100011111001100110010010001111010100000101001111011000011 A
b10000 I
b1111110 H
b1000000 G
b11010100 F
b1011100 L
b1111010100000101001111011000011 /
b1111010100000101001111011000011 =
b1111010100000101001111011000011 ?
b10100010010010110001111110110 .
b10100010010010110001111110110 8
b10100010010010110001111110110 K
1&
#4200000
0&
#4300000
b111001011111011001111100101111010000001100101010011110011011000110101100011111001100110010010001111010010000101111111011000010 3
b111001011111011001111100101111010000001100101010011110011011000110101100011111001100110010010001111010010000101111111011000010 >
b111001011111011001111100101111010000001100101010011110011011000110101100011111001100110010010001111010010000101111111011000010 A
b1111010010000101111111011000010 /
b1111010010000101111111011000010 =
b1111010010000101111111011000010 ?
b10001 I
b11110100 H
b11100000 G
b111110 F
b10010100 L
b1111010100000101001111011000011 .
b1111010100000101001111011000011 8
b1111010100000101001111011000011 K
1&
#4400000
0&
#4500000
b111001011111011001111100101111010000001100101010011110011011000110101100011111001100110010010001101100010111110100110010100111 3
b111001011111011001111100101111010000001100101010011110011011000110101100011111001100110010010001101100010111110100110010100111 >
b111001011111011001111100101111010000001100101010011110011011000110101100011111001100110010010001101100010111110100110010100111 A
b10010 I
b10101100 H
b1000000 G
b10100 F
b11111110 L
b10100001 J
b1101100010111110100110010100111 /
b1101100010111110100110010100111 =
b1101100010111110100110010100111 ?
b1111010010000101111111011000010 .
b1111010010000101111111011000010 8
b1111010010000101111111011000010 K
1&
#4600000
0&
#4700000
b111001011111011001111100101111010000001100101010011110011011000110101100011111001100110010010000001001111110110111000111100010 3
b111001011111011001111100101111010000001100101010011110011011000110101100011111001100110010010000001001111110110111000111100010 >
b111001011111011001111100101111010000001100101010011110011011000110101100011111001100110010010000001001111110110111000111100010 A
b1001111110110111000111100010 /
b1001111110110111000111100010 =
b1001111110110111000111100010 ?
b10011 I
b1011010 H
b11000000 G
b11101100 F
b1010100 L
b1101100010111110100110010100111 .
b1101100010111110100110010100111 8
b1101100010111110100110010100111 K
1&
#4800000
0&
#4900000
b111001011111011001111100101111010000001100101010011110011011000110101100011111001100110010010001010011000111011110110001110100 3
b111001011111011001111100101111010000001100101010011110011011000110101100011111001100110010010001010011000111011110110001110100 >
b111001011111011001111100101111010000001100101010011110011011000110101100011111001100110010010001010011000111011110110001110100 A
b10100 I
b11110100 H
b10100000 G
b10011010 F
b11101100 L
b1010011000111011110110001110100 /
b1010011000111011110110001110100 =
b1010011000111011110110001110100 ?
b1001111110110111000111100010 .
b1001111110110111000111100010 8
b1001111110110111000111100010 K
1&
#5000000
0&
#5100000
b111001011111011001111100101111010000001100101010011110011011000110101100011111001100110010010000100000011111100101000000001111 3
b111001011111011001111100101111010000001100101010011110011011000110101100011111001100110010010000100000011111100101000000001111 >
b111001011111011001111100101111010000001100101010011110011011000110101100011111001100110010010000100000011111100101000000001111 A
b100000011111100101000000001111 /
b100000011111100101000000001111 =
b100000011111100101000000001111 ?
b10101 I
b1100 H
b1000000 G
b1010100 F
b10111010 L
b1010011000111011110110001110100 .
b1010011000111011110110001110100 8
b1010011000111011110110001110100 K
1&
#5200000
0&
#5300000
b111001011111011001111100101111010000001100101010011110011011000110101100011111001100110010010011011111001110000101010110001100 3
b111001011111011001111100101111010000001100101010011110011011000110101100011111001100110010010011011111001110000101010110001100 >
b111001011111011001111100101111010000001100101010011110011011000110101100011111001100110010010011011111001110000101010110001100 A
b10110 I
b1011010 H
b11000000 G
b1001100 F
b1010100 L
b11011111001110000101010110001100 /
b11011111001110000101010110001100 =
b11011111001110000101010110001100 ?
b100000011111100101000000001111 .
b100000011111100101000000001111 8
b100000011111100101000000001111 K
1&
#5400000
0&
#5500000
b111001011111011001111100101111010000001100101010011110011011000110101100011111001100110010010000010000011110111110001111101111 3
b111001011111011001111100101111010000001100101010011110011011000110101100011111001100110010010000010000011110111110001111101111 >
b111001011111011001111100101111010000001100101010011110011011000110101100011111001100110010010000010000011110111110001111101111 A
b10000011110111110001111101111 /
b10000011110111110001111101111 =
b10000011110111110001111101111 ?
b10111 I
b11110100 H
b10100000 G
b10011010 F
b11001100 L
b11011111001110000101010110001100 .
b11011111001110000101010110001100 8
b11011111001110000101010110001100 K
1&
#5600000
0&
#5700000
b111001011111011001111100101111010000001100101010011110011011000110101100011111001100110010010001111110110000100001000011001011 3
b111001011111011001111100101111010000001100101010011110011011000110101100011111001100110010010001111110110000100001000011001011 >
b111001011111011001111100101111010000001100101010011110011011000110101100011111001100110010010001111110110000100001000011001011 A
b11000 I
b1101100 H
b1000000 G
b1010100 F
b10111010 L
b1111110110000100001000011001011 /
b1111110110000100001000011001011 =
b1111110110000100001000011001011 ?
b10000011110111110001111101111 .
b10000011110111110001111101111 8
b10000011110111110001111101111 K
1&
#5800000
0&
#5900000
b111001011111011001111100101111010000001100101010011110011011000110101100011111001100110010010010001011010010111111010011100101 3
b111001011111011001111100101111010000001100101010011110011011000110101100011111001100110010010010001011010010111111010011100101 >
b111001011111011001111100101111010000001100101010011110011011000110101100011111001100110010010010001011010010111111010011100101 A
b10001011010010111111010011100101 /
b10001011010010111111010011100101 =
b10001011010010111111010011100101 ?
b11001 I
b1011010 H
b11000000 G
b101100 F
b1010100 L
b1111110110000100001000011001011 .
b1111110110000100001000011001011 8
b1111110110000100001000011001011 K
1&
#6000000
0&
#6100000
b111001011111011001111100101111010000001100101010011110011011000110101100011111001100110010010001111010000101011100100011000010 3
b111001011111011001111100101111010000001100101010011110011011000110101100011111001100110010010001111010000101011100100011000010 >
b111001011111011001111100101111010000001100101010011110011011000110101100011111001100110010010001111010000101011100100011000010 A
b11010 I
b11110100 H
b10100000 G
b10011010 F
b11101100 L
b1111010000101011100100011000010 /
b1111010000101011100100011000010 =
b1111010000101011100100011000010 ?
b10001011010010111111010011100101 .
b10001011010010111111010011100101 8
b10001011010010111111010011100101 K
1&
#6200000
0&
#6300000
b111001011111011001111100101111010000001100101010011110011011000110101100011111001100110010010011000101101000111100001101011001 3
b111001011111011001111100101111010000001100101010011110011011000110101100011111001100110010010011000101101000111100001101011001 >
b111001011111011001111100101111010000001100101010011110011011000110101100011111001100110010010011000101101000111100001101011001 A
b11000101101000111100001101011001 /
b11000101101000111100001101011001 =
b11000101101000111100001101011001 ?
b11011 I
b10001100 H
b1000000 G
b1010100 F
b10111010 L
b1111010000101011100100011000010 .
b1111010000101011100100011000010 8
b1111010000101011100100011000010 K
1&
#6400000
0&
#6500000
b111001011111011001111100101111010000001100101010011110011011000110101100011111001100110010010001110101110110011010001010111010 3
b111001011111011001111100101111010000001100101010011110011011000110101100011111001100110010010001110101110110011010001010111010 >
b111001011111011001111100101111010000001100101010011110011011000110101100011111001100110010010001110101110110011010001010111010 A
b11100 I
b1011010 H
b11000000 G
b11001100 F
b1010100 L
b1110101110110011010001010111010 /
b1110101110110011010001010111010 =
b1110101110110011010001010111010 ?
b11000101101000111100001101011001 .
b11000101101000111100001101011001 8
b11000101101000111100001101011001 K
1&
#6600000
0&
#6700000
b111001011111011001111100101111010000001100101010011110011011000110101100011111001100110010010000101101111101101101001000101010 3
b111001011111011001111100101111010000001100101010011110011011000110101100011111001100110010010000101101111101101101001000101010 >
b111001011111011001111100101111010000001100101010011110011011000110101100011111001100110010010000101101111101101101001000101010 A
b101101111101101101001000101010 /
b101101111101101101001000101010 =
b101101111101101101001000101010 ?
b11101 I
b11110100 H
b10100000 G
b10011010 F
b11001100 L
b1110101110110011010001010111010 .
b1110101110110011010001010111010 8
b1110101110110011010001010111010 K
1&
#6800000
0&
#6900000
b111001011111011001111100101111010000001100101010011110011011000110101100011111001100110010010001001001111100101010000001100010 3
b111001011111011001111100101111010000001100101010011110011011000110101100011111001100110010010001001001111100101010000001100010 >
b111001011111011001111100101111010000001100101010011110011011000110101100011111001100110010010001001001111100101010000001100010 A
b11110 I
b1101100 H
b1000000 G
b1010100 F
b10111010 L
b1001001111100101010000001100010 /
b1001001111100101010000001100010 =
b1001001111100101010000001100010 ?
b101101111101101101001000101010 .
b101101111101101101001000101010 8
b101101111101101101001000101010 K
1&
#7000000
0&
#7100000
b111001011111011001111100101111010000001100101010011110011011000110101100011111001100110010010001001001001110101101110001100000 3
b111001011111011001111100101111010000001100101010011110011011000110101100011111001100110010010001001001001110101101110001100000 >
b111001011111011001111100101111010000001100101010011110011011000110101100011111001100110010010001001001001110101101110001100000 A
b1001001001110101101110001100000 /
b1001001001110101101110001100000 =
b1001001001110101101110001100000 ?
b11111 I
b1011010 H
b11000000 G
b101100 F
b1010100 L
b1001001111100101010000001100010 .
b1001001111100101010000001100010 8
b1001001111100101010000001100010 K
1&
#7200000
0&
#7300000
b111001011111011001111100101111010000001100101010011110011011000110101100011111001100110010010010011100101111110000000100000111 3
b111001011111011001111100101111010000001100101010011110011011000110101100011111001100110010010010011100101111110000000100000111 >
b111001011111011001111100101111010000001100101010011110011011000110101100011111001100110010010010011100101111110000000100000111 A
b100000 I
b11110100 H
b10100000 G
b10011010 F
b11101100 L
b10011100101111110000000100000111 /
b10011100101111110000000100000111 =
b10011100101111110000000100000111 ?
b1001001001110101101110001100000 .
b1001001001110101101110001100000 8
b1001001001110101101110001100000 K
1&
#7400000
0&
#7500000
b111001011111011001111100101111010000001100101010011110011011000110101100011111001100110010010001010111100001101001110001111101 3
b111001011111011001111100101111010000001100101010011110011011000110101100011111001100110010010001010111100001101001110001111101 >
b111001011111011001111100101111010000001100101010011110011011000110101100011111001100110010010001010111100001101001110001111101 A
b1010111100001101001110001111101 /
b1010111100001101001110001111101 =
b1010111100001101001110001111101 ?
b11110010 E
b101001 D
b10011011 C
b11000100111111110 4
b11000100111111110 9
b11000100111111110 B
b10011100101111110000000100000111 .
b10011100101111110000000100000111 8
b10011100101111110000000100000111 K
1&
#7600000
0&
#7700000
b111001011111011001111100101111010000001100101010011110011011000110101100011111001100110010010010100111101011111001101100011101 3
b111001011111011001111100101111010000001100101010011110011011000110101100011111001100110010010010100111101011111001101100011101 >
b111001011111011001111100101111010000001100101010011110011011000110101100011111001100110010010010100111101011111001101100011101 A
b11100110 E
b11001001 D
b110101 C
b100110110010100111110010 4
b100110110010100111110010 9
b100110110010100111110010 B
b10100111101011111001101100011101 /
b10100111101011111001101100011101 =
b10100111101011111001101100011101 ?
b1010111100001101001110001111101 .
b1010111100001101001110001111101 8
b1010111100001101001110001111101 K
1&
#7800000
0&
#7900000
b111001011111011001111100101111010000001100101010011110011011000110101100011111001100110010010011101100110000111011111110100111 3
b111001011111011001111100101111010000001100101010011110011011000110101100011111001100110010010011101100110000111011111110100111 >
b111001011111011001111100101111010000001100101010011110011011000110101100011111001100110010010011101100110000111011111110100111 A
b11101100110000111011111110100111 /
b11101100110000111011111110100111 =
b11101100110000111011111110100111 ?
b11011010 E
b1101001 D
b11001111 C
b1101011100100111100110 4
b1101011100100111100110 9
b1101011100100111100110 B
b10100111101011111001101100011101 .
b10100111101011111001101100011101 8
b10100111101011111001101100011101 K
1&
#8000000
0&
#8100000
b111001011111011001111100101111010000001100101010011110011011000110101100011111001100110010010001100110000110000100011010011010 3
b111001011111011001111100101111010000001100101010011110011011000110101100011111001100110010010001100110000110000100011010011010 >
b111001011111011001111100101111010000001100101010011110011011000110101100011111001100110010010001100110000110000100011010011010 A
b11001110 E
b1001 D
b1101001 C
b110011110110100111011010 4
b110011110110100111011010 9
b110011110110100111011010 B
b1100110000110000100011010011010 /
b1100110000110000100011010011010 =
b1100110000110000100011010011010 ?
b11101100110000111011111110100111 .
b11101100110000111011111110100111 8
b11101100110000111011111110100111 K
1&
#8200000
0&
#8300000
b111001011111011001111100101111010000001100101010011110011011000110101100011111001100110010010001100010011010111011100010010011 3
b111001011111011001111100101111010000001100101010011110011011000110101100011111001100110010010001100010011010111011100010010011 >
b111001011111011001111100101111010000001100101010011110011011000110101100011111001100110010010001100010011010111011100010010011 A
b1100010011010111011100010010011 /
b1100010011010111011100010010011 =
b1100010011010111011100010010011 ?
b11000010 E
b10101001 D
b11 C
b11010010000100111001110 4
b11010010000100111001110 9
b11010010000100111001110 B
b1100110000110000100011010011010 .
b1100110000110000100011010011010 8
b1100110000110000100011010011010 K
1&
#8400000
0&
#8500000
b111001011111011001111100101111010000001100101010011110011011000110101100011111001100110010010000100000110011110011001000010000 3
b111001011111011001111100101111010000001100101010011110011011000110101100011111001100110010010000100000110011110011001000010000 >
b111001011111011001111100101111010000001100101010011110011011000110101100011111001100110010010000100000110011110011001000010000 A
b10110110 E
b1001001 D
b10011101 C
b111010100111000010 4
b111010100111000010 9
b111010100111000010 B
b100000110011110011001000010000 /
b100000110011110011001000010000 =
b100000110011110011001000010000 ?
b1100010011010111011100010010011 .
b1100010011010111011100010010011 8
b1100010011010111011100010010011 K
1&
#8600000
0&
#8700000
b111001011111011001111100101111010000001100101010011110011011000110101100011111001100110010010000011110000001111011001000001010 3
b111001011111011001111100101111010000001100101010011110011011000110101100011111001100110010010000011110000001111011001000001010 >
b111001011111011001111100101111010000001100101010011110011011000110101100011111001100110010010000011110000001111011001000001010 A
b11110000001111011001000001010 /
b11110000001111011001000001010 =
b11110000001111011001000001010 ?
b10101010 E
b11101001 D
b110111 C
b100111010100100110110110 4
b100111010100100110110110 9
b100111010100100110110110 B
b100000110011110011001000010000 .
b100000110011110011001000010000 8
b100000110011110011001000010000 K
1&
#8800000
0&
#8900000
b111001011111011001111100101111010000001100101010011110011011000110101100011111001100110010010001000000111100110101000001010000 3
b111001011111011001111100101111010000001100101010011110011011000110101100011111001100110010010001000000111100110101000001010000 >
b111001011111011001111100101111010000001100101010011110011011000110101100011111001100110010010001000000111100110101000001010000 A
b10011110 E
b10001001 D
b11010001 C
b1101111110100110101010 4
b1101111110100110101010 9
b1101111110100110101010 B
b1000000111100110101000001010000 /
b1000000111100110101000001010000 =
b1000000111100110101000001010000 ?
b11110000001111011001000001010 .
b11110000001111011001000001010 8
b11110000001111011001000001010 K
1&
#9000000
0&
#9100000
b111001011111011001111100101111010000001100101010011110011011000110101100011111001100110010010011001100111010110101011101101000 3
b111001011111011001111100101111010000001100101010011110011011000110101100011111001100110010010011001100111010110101011101101000 >
b111001011111011001111100101111010000001100101010011110011011000110101100011111001100110010010011001100111010110101011101101000 A
b11001100111010110101011101101000 /
b11001100111010110101011101101000 =
b11001100111010110101011101101000 ?
b10010010 E
b101001 D
b1101011 C
b110100011000100110011110 4
b110100011000100110011110 9
b110100011000100110011110 B
b1000000111100110101000001010000 .
b1000000111100110101000001010000 8
b1000000111100110101000001010000 K
1&
#9200000
0&
#9300000
b111001011111011001111100101111010000001100101010011110011011000110101100011111001100110010010010000001111100011010010011010010 3
b111001011111011001111100101111010000001100101010011110011011000110101100011111001100110010010010000001111100011010010011010010 >
b111001011111011001111100101111010000001100101010011110011011000110101100011111001100110010010010000001111100011010010011010010 A
b10000110 E
b11001001 D
b101 C
b11010110010100110010010 4
b11010110010100110010010 9
b11010110010100110010010 B
b10000001111100011010010011010010 /
b10000001111100011010010011010010 =
b10000001111100011010010011010010 ?
b11001100111010110101011101101000 .
b11001100111010110101011101101000 8
b11001100111010110101011101101000 K
1&
#9400000
0&
#9500000
b111001011111011001111100101111010000001100101010011110011011000110101100011111001100110010010000011000011000101100001111111111 3
b111001011111011001111100101111010000001100101010011110011011000110101100011111001100110010010000011000011000101100001111111111 >
b111001011111011001111100101111010000001100101010011110011011000110101100011111001100110010010000011000011000101100001111111111 A
b11000011000101100001111111111 /
b11000011000101100001111111111 =
b11000011000101100001111111111 ?
b1111010 E
b1101001 D
b10011111 C
b1011100100110000110 4
b1011100100110000110 9
b1011100100110000110 B
b10000001111100011010010011010010 .
b10000001111100011010010011010010 8
b10000001111100011010010011010010 K
1&
#9600000
0&
#9700000
b111001011111011001111100101111010000001100101010011110011011000110101100011111001100110010010001101110101000011011100010101011 3
b111001011111011001111100101111010000001100101010011110011011000110101100011111001100110010010001101110101000011011100010101011 >
b111001011111011001111100101111010000001100101010011110011011000110101100011111001100110010010001101110101000011011100010101011 A
b1101110 E
b1001 D
b111001 C
b100111110110100101111010 4
b100111110110100101111010 9
b100111110110100101111010 B
b1101110101000011011100010101011 /
b1101110101000011011100010101011 =
b1101110101000011011100010101011 ?
b11000011000101100001111111111 .
b11000011000101100001111111111 8
b11000011000101100001111111111 K
1&
#9800000
0&
