RTL/Verificar_módulos/memoria_entradas/test.vcd
$date
	Tue Jul 13 10:19:35 2021
$end
$version
	Icarus Verilog
$end
$timescale
	1ps
$end
$scope module BUF $end
$var wire 1 ! A $end
$var wire 1 " Y $end
$upscope $end
$scope module DFF $end
$var wire 1 # C $end
$var wire 1 $ D $end
$var reg 1 % Q $end
$upscope $end
$scope module DFFSR $end
$var wire 1 & C $end
$var wire 1 ' D $end
$var wire 1 ( R $end
$var wire 1 ) S $end
$var reg 1 * Q $end
$upscope $end
$scope module NAND $end
$var wire 1 + A $end
$var wire 1 , B $end
$var wire 1 - Y $end
$upscope $end
$scope module NOR $end
$var wire 1 . A $end
$var wire 1 / B $end
$var wire 1 0 Y $end
$upscope $end
$scope module NOT $end
$var wire 1 1 A $end
$var wire 1 2 Y $end
$upscope $end
$scope module tbtop $end
$var wire 1 3 reset_L $end
$var wire 1 4 next $end
$var wire 128 5 data_out [127:0] $end
$var wire 1 6 clk $end
$scope module RAM $end
$var wire 1 3 reset_L $end
$var wire 1 4 next $end
$var wire 1 6 clk $end
$var reg 128 7 data_out [127:0] $end
$var reg 2 8 rd_ptr [1:0] $end
$upscope $end
$scope module reloj $end
$var reg 1 6 clk $end
$upscope $end
$scope module tb_RAM $end
$var wire 1 6 clk $end
$var reg 1 4 next $end
$var reg 1 3 reset_L $end
$scope task drv_init $end
$upscope $end
$upscope $end
$upscope $end
$enddefinitions $end
#0
$dumpvars
bx 8
bx 7
06
bx 5
x4
x3
z2
z1
x0
z/
z.
x-
z,
z+
x*
z)
z(
z'
z&
x%
z$
z#
z"
z!
$end
#100000
03
16
#200000
06
#300000
b0 8
b0 5
b0 7
16
#400000
06
#500000
04
13
16
#600000
06
#700000
b111001011111011001111100101111010000001100101010011110011011000110101100011111001100110010010011111101111011011000011100111100 5
b111001011111011001111100101111010000001100101010011110011011000110101100011111001100110010010011111101111011011000011100111100 7
16
#800000
06
#900000
14
16
#1000000
06
#1100000
04
b1 8
16
#1200000
06
#1300000
b10111010001000110100100100011110000011111001100011101101000011100010111000110001001010001110000110000100101011101111111000001111 5
b10111010001000110100100100011110000011111001100011101101000011100010111000110001001010001110000110000100101011101111111000001111 7
16
#1400000
06
#1500000
16
#1600000
06
#1700000
14
16
#1800000
06
#1900000
04
b10 8
16
#2000000
06
#2100000
b11101101000110001011111000001111100110000100101011100000111000101110001100010010100011101111111000001111101000100011010010010001 5
b11101101000110001011111000001111100110000100101011100000111000101110001100010010100011101111111000001111101000100011010010010001 7
14
16
#2200000
06
#2300000
04
b11 8
16
#2400000
06
#2500000
b10001010011110110111100011011000111010011111011110001001111100111101100010011110110001111100011110111000101001111101111101111000 5
b10001010011110110111100011011000111010011111011110001001111100111101100010011110110001111100011110111000101001111101111101111000 7
16
